﻿name="Modern Day 4 DEV"
path="mod/modern_day_4_hoi/"
tags={
	"Alternative History"
	"Gameplay"
	"Events"
	"Graphics"
}
remote_file_id="1241177173"
supported_version="1.5.1"
picture = "thumbnail.png"

replace_path = "history/states"
replace_path = "history/units"
replace_path = "history/countries"
replace_path = "events"
replace_path = "common/ai_strategy"
replace_path = "common/ai_templates"
replace_path = "common/wargoals"
replace_path = "common/national_focus"
replace_path = "common/countries"
replace_path = "common/technologies"
replace_path = "common/units"
replace_path = "common/ideas"
replace_path = "common/units/equipment"
replace_path = "common/units/equipment/upgrades"
replace_path = "map/strategicregions"
replace_path = "map/supplyareas"
replace_path = "history/countries/"
replace_path = "events/"
replace_path = "gfx/loadingscreens"