
strategic_region={
	id=124
	name="STRATEGICREGION_124"
	provinces={
		1944 1981 1997 2052 4526 4892 4942 5000 5056 5088 5317 7915 7968 8024 8050 8080 8113 10736 10767 10823 10849 10855 10879 12772 11777 12107 12115 12121 12135 12143 12151 12154 12163 12178 12185 12193 12194 12219 12222 12227 12235 12254 12261 12285 12290 12308 
	}
	weather={
		period={
			between={ 0.0 30.0 }
			temperature={ 26.0 28.0 }
			temperature_day_night={ 5.0 -5.0 }
			no_phenomenon=0.300
			rain_light=0.200
			rain_heavy=0.500
			snow=0.000
			blizzard=0.000
			mud=1.000
			sandstorm=0.000
			min_snow_level=0.000
		}
		period={
			between={ 0.1 27.1 }
			temperature={ 26.0 28.0 }
			temperature_day_night={ 5.0 -5.0 }
			no_phenomenon=0.300
			rain_light=0.200
			rain_heavy=0.500
			snow=0.000
			blizzard=0.000
			mud=1.000
			sandstorm=0.000
			min_snow_level=0.000
		}
		period={
			between={ 0.2 30.2 }
			temperature={ 26.0 28.0 }
			temperature_day_night={ 5.0 -5.0 }
			no_phenomenon=0.250
			rain_light=0.300
			rain_heavy=0.450
			snow=0.000
			blizzard=0.000
			mud=1.000
			sandstorm=0.000
			min_snow_level=0.000
		}
		period={
			between={ 0.3 29.3 }
			temperature={ 26.0 28.0 }
			temperature_day_night={ 5.0 -5.0 }
			no_phenomenon=0.250
			rain_light=0.300
			rain_heavy=0.450
			snow=0.000
			blizzard=0.000
			mud=1.000
			sandstorm=0.000
			min_snow_level=0.000
		}
		period={
			between={ 0.4 30.4 }
			temperature={ 26.0 28.0 }
			temperature_day_night={ 5.0 -5.0 }
			no_phenomenon=0.300
			rain_light=0.200
			rain_heavy=0.500
			snow=0.000
			blizzard=0.000
			mud=1.000
			sandstorm=0.000
			min_snow_level=0.000
		}
		period={
			between={ 0.5 29.5 }
			temperature={ 26.0 29.0 }
			temperature_day_night={ 5.0 -5.0 }
			no_phenomenon=0.500
			rain_light=0.100
			rain_heavy=0.400
			snow=0.000
			blizzard=0.000
			mud=1.000
			sandstorm=0.000
			min_snow_level=0.000
		}
		period={
			between={ 0.6 30.6 }
			temperature={ 27.0 29.0 }
			temperature_day_night={ 5.0 -5.0 }
			no_phenomenon=0.600
			rain_light=0.100
			rain_heavy=0.500
			snow=0.000
			blizzard=0.000
			mud=1.000
			sandstorm=0.000
			min_snow_level=0.000
		}
		period={
			between={ 0.7 30.7 }
			temperature={ 27.0 29.0 }
			temperature_day_night={ 7.0 -7.0 }
			no_phenomenon=0.600
			rain_light=0.100
			rain_heavy=0.500
			snow=0.000
			blizzard=0.000
			mud=1.000
			sandstorm=0.000
			min_snow_level=0.000
		}
		period={
			between={ 0.8 29.8 }
			temperature={ 26.0 30.0 }
			temperature_day_night={ 7.0 -7.0 }
			no_phenomenon=0.500
			rain_light=0.100
			rain_heavy=0.400
			snow=0.000
			blizzard=0.000
			mud=1.000
			sandstorm=0.000
			min_snow_level=0.000
		}
		period={
			between={ 0.9 30.9 }
			temperature={ 26.0 30.0 }
			temperature_day_night={ 7.0 -7.0 }
			no_phenomenon=0.500
			rain_light=0.100
			rain_heavy=0.400
			snow=0.000
			blizzard=0.000
			mud=1.000
			sandstorm=0.000
			min_snow_level=0.000
		}
		period={
			between={ 0.10 29.10 }
			temperature={ 26.0 30.0 }
			temperature_day_night={ 5.0 -5.0 }
			no_phenomenon=0.400
			rain_light=0.100
			rain_heavy=0.500
			snow=0.000
			blizzard=0.000
			mud=1.000
			sandstorm=0.000
			min_snow_level=0.000
		}
		period={
			between={ 0.11 30.11 }
			temperature={ 26.0 28.0 }
			temperature_day_night={ 5.0 -5.0 }
			no_phenomenon=0.300
			rain_light=0.200
			rain_heavy=0.500
			snow=0.000
			blizzard=0.000
			mud=1.000
			sandstorm=0.000
			min_snow_level=0.000
		}
	}
}
