ideas = {

	Infantry_Weapon_Company = {
	
		designer = yes
		
		ITA_Beretta_Infantry_Weapon_Company = {
		
			picture = Beretta_ITA
			
			allowed = {
				tag = ITA
			}
			cost = 150
			
			removal_cost = 10
			
			research_bonus = {
				Cat_INF_WEP = 0.186
			}
			
			traits = {
				Cat_INF_WEP_6
			
			}
			ai_will_do = {
				factor = 0.6 #All countries need a land army, vehicles are part of modern warfare
				
				modifier = {
					num_of_military_factories > 5 #has the industry to take advantage of the company
					factor = 1
				}
				modifier = {
					is_major = yes #Majors project power
					factor = 1
				}
			}
			
		}
	}
	
	Vehicle_Company = {
	
		designer = yes
		
		ITA_Iveco_Vehicle_Company = {
		
			picture = Iveco_ITA
			
			allowed = {
				tag = ITA
			}
			cost = 150
			
			removal_cost = 10
			
			research_bonus = {
				Cat_ARMOR = 0.186
			}
			
			traits = {
				Cat_ARMOR_6
			
			}
			ai_will_do = {
				factor = 0.6 #All countries need a land army, vehicles are part of modern warfare
				
				modifier = {
					num_of_military_factories > 10 #has the industry to take advantage of the company
					factor = 1
				}
				modifier = {
					is_major = yes #Majors project power
					factor = 1
				}
			}
			
		}
	}
	
	Helicopter_Company = {
	
		designer = yes
		
		ITA_AgustaWestland_Helicopter_Company = {
		
			picture = AgustaWestland_ITA
			
			allowed = {
				tag = ITA
			}
			cost = 150
			
			removal_cost = 10
			
			research_bonus = {
				Cat_HELI = 0.217
			}
			
			traits = {
				Cat_HELI_7
			
			}
			ai_will_do = {
				factor = 0.7 #Most countries don't have decent airforces
				
				modifier = {
					has_tech = attack_helicopter2 #has semi-modern tech, most countries dont have it
					factor = 1
				}
				modifier = {
					has_tech = transport_helicopter2 #has semi-modern tech, most countries dont have it
					factor = 1
				}
				modifier = {
					is_major = yes #Majors project power
					factor = 1
				}
			}
			
		}
	}
	
	Ship_Company = {
	
		designer = yes
		
		ITA_Fincantieri_Ship_Company = {
		
			picture = Fincantieri_ITA
			
			allowed = {
				tag = ITA
			}
			cost = 150
			
			removal_cost = 10
			
			research_bonus = {
				Cat_SURFACE_SHIP = 0.248
			}
			
			traits = {
				Cat_NAVAL_EQP_8
			
			}
			ai_will_do = {
				factor = 0.8
				
				modifier = {
					has_navy_size = { size > 25 } #has a large navy
					factor = 1
				}
				modifier = {
					num_of_naval_factories > 3 #has the industry to take advantage of the company
					factor = 1
				}
				modifier = {
					is_major = yes #Majors project power
					factor = 1
				}
				modifier = {
					NOT = { #need to have ports
						any_owned_state = {
							is_coastal = yes
						}
					}
					factor = -10
				}
			}
			
		}
	}
	
	Submarine_Company = {
	
		designer = yes
		
		ITA_Fincantieri_Submarine_Company = {
		
			picture = Fincantieri_ITA
			
			allowed = {
				tag = ITA
			}
			cost = 150
			
			removal_cost = 10
			
			research_bonus = {
				Cat_D_SUB = 0.248
			}
			
			traits = {
				Cat_D_SUB_8
			
			}
			ai_will_do = {
				factor = 0.8
				
				modifier = {
					has_navy_size = { size > 25 } #has a large navy
					factor = 1
				}
				modifier = {
					num_of_naval_factories > 3 #has the industry to take advantage of the company
					factor = 1
				}
				modifier = {
					is_major = yes #Majors project power
						factor = 1
				}
				modifier = {
					NOT = { #need to have ports
						any_owned_state = {
						is_coastal = yes
						}
					}
					factor = -10
				}
			}
			
		}
	}
	
	Aircraft_Company = {
	
		designer = yes
		
		ITA_Alenia_Aeronautica_Aircraft_Company = {
		
			picture = Alenia_Aeronautica_ITA
			
			allowed = {
				tag = ITA
			}
			cost = 150
			
			removal_cost = 10
			
			research_bonus = {
				CAT_FIXED_WING = 0.217
			}
			
			traits = {
				CAT_FIXED_WING_7
			
			}
			ai_will_do = {
				factor = 0.7 #Most countries don't have decent airforces
				
				modifier = {
					or = {
						has_tech = AS_Fighter2 #has semi-modern tech
						has_tech = MR_Fighter2
						has_tech = Strike_fighter2
						has_tech = L_Strike_fighter2
						has_tech = Air_UAV1
					}
					factor = 1
				}
				modifier = {
					or = {
						has_tech = strategic_bomber3 #has semi-modern tech, most countries dont have it
						has_tech = transport_plane2
						has_tech = naval_plane3
						has_tech = cas2
					}
					factor = 1
				}
				modifier = {
					is_major = yes #Majors project power
					factor = 1
				}
			}
			
		}
	}
	
	Aircraft_Company = {
	
		designer = yes
		
		ITA_Airbus_Defence_Aircraft_Company = {
		
			picture = Airbus_Defence_ITA
			
			allowed = {
				tag = ITA
			}
			cost = 150
			
			removal_cost = 10
			
			research_bonus = {
				CAT_FIXED_WING = 0.279
			}
			
			traits = {
				CAT_FIXED_WING_9
			
			}
			ai_will_do = {
				factor = 0.9 #Most countries don't have decent airforces
				
				modifier = {
					or = {
						has_tech = AS_Fighter2 #has semi-modern tech
						has_tech = MR_Fighter2
						has_tech = Strike_fighter2
						has_tech = L_Strike_fighter2
						has_tech = Air_UAV1
					}
					factor = 1
				}
				modifier = {
					or = {
						has_tech = strategic_bomber3 #has semi-modern tech, most countries dont have it
						has_tech = transport_plane2
						has_tech = naval_plane3
						has_tech = cas2
					}
					factor = 1
				}
				modifier = {
					is_major = yes #Majors project power
					factor = 1
				}
			}
			
		}
	}
	
	Helicopter_Company = {
	
		designer = yes
		
		ITA_Airbus_Helicopters_Helicopter_Company = {
		
			picture = Airbus_Helicopters_ITA
			
			allowed = {
				tag = ITA
			}
			cost = 150
			
			removal_cost = 10
			
			research_bonus = {
				Cat_HELI = 0.248
			}
			
			traits = {
				Cat_HELI_8
			
			}
			ai_will_do = {
				factor = 0.8 #Most countries don't have decent airforces
				
				modifier = {
					has_tech = attack_helicopter2 #has semi-modern tech, most countries dont have it
					factor = 1
				}
				modifier = {
					has_tech = transport_helicopter2 #has semi-modern tech, most countries dont have it
					factor = 1
				}
				modifier = {
					is_major = yes #Majors project power
					factor = 1
				}
			}
			
		}
	}
	
}
