ideas = {

	country = {
		
		AU_member = {
			
			allowed = {
				is_african_nation = yes
			}
			
			default = yes
	
			modifier = {
				# political_power_gain = 0.1
				# stability_factor = -0.05
			}
		}
    }
}
