
state={
	id=390
	name="STATE_390"
	resources={
		oil=3.000
	}

	history={
		owner = TUN
		victory_points = {
			11935 1 
		}
		victory_points = {
			1105 1 
		}
		buildings = {
			infrastructure = 2

		}
		add_core_of = TUN

	}

	provinces={
		1105 3987 4992 9983 10082 11935 12000 13145 13179 
	}
	manpower=1713675
	buildings_max_level_factor=1.000
	state_category=state_03
}
