
state={
	id=382
	name="STATE_382"
	
	resources={
		oil=3
	}

	history={
		owner = ALG
		victory_points = {
			10731 1 
		}
		victory_points = {
			1958 1 
		}
		buildings = {
			infrastructure = 0

		}
		add_core_of = ALG

	}

	provinces={
		1095 1958 7041 8088 10731 12711 12842 13424 
	}
	manpower=438647
	buildings_max_level_factor=1.000
	state_category=state_01
}
