
state={
	id=244
	name="STATE_244"

	history={
		owner = KEN
		victory_points = {
			9097 5 
		}
		victory_points = {
			11145 1 
		}
		buildings = {
			infrastructure = 2
			industrial_complex = 1
			arms_factory = 1

		}
		add_core_of = KEN

	}

	provinces={
		5160 5196 10860 10962 11145 13135 9097 9107 
	}
	manpower=11334638
	buildings_max_level_factor=1.000
	state_category=state_09
}
