
state={
	id=303
	name="STATE_303"

	history={
		owner = DRC
		victory_points = {
			12896 5 
		}
		victory_points = {
			12945 1 
		}
		victory_points = {
			12775 1 
		}
		buildings = {
			infrastructure = 0

		}
		add_core_of = DRC

	}

	provinces={
		10025 12775 12896 12945 3475 3519 3583 3774 6225 6252
	}
	manpower=6436292
	buildings_max_level_factor=1.000
	state_category=state_06
}
