
state={
	id=477
	name="STATE_477"

	history={
		owner = RAJ
		victory_points = {
			11449 2 
		}
		buildings = {
			infrastructure = 1

		}
		add_core_of = RAJ

	}

	provinces={
		1581 9889 10094 11449 
	}
	manpower=3027137
	buildings_max_level_factor=1.000
	state_category=state_04
}
