
state={
	id=169
	name="STATE_169"

	history={
		owner = IRQ
		victory_points = {
			10876 5 
		}
		victory_points = {
			13353 7 
		}
		victory_points = {
			7994 5 
		}
		victory_points = {
			2004 5 
		}
		buildings = {
			infrastructure = 1
			arms_factory = 1

		}
		add_core_of = IRQ

	}

	provinces={
		10744 10876 13353 11248 
	}
	manpower=2832046
	buildings_max_level_factor=1.000
	state_category=state_04
}
