state= {
	id=806
	name="STATE_806"
	manpower = 7088252
	state_category = state_07
	
	resources={
		tungsten=9
	}

	history={
		owner = USA
		victory_points = { 853 10 } #Phoenix
		victory_points = { 3834 5 } #Tucson
		victory_points = { 12765 1 } #Flagstaff
		victory_points = { 10783 3 } #Yuma
		victory_points = { 7920 1 } #Sierra Vista
		victory_points = { 11814 1 } #Lake Havasu City
		victory_points = { 1793 1 } #Prescott
		
		buildings = {
			infrastructure = 6
			industrial_complex = 4
			arms_factory = 4
			air_base = 4

		}
		add_core_of = USA
	}

	provinces={
		  850 853 1793 3834 4796 6897 7747 7821 7920 8115 10573 10783 11814 12765
		
		}
}
