state={
	id=927
	name="STATE_927"
	history = {
		owner = SUD
		add_core_of = SSU
		add_core_of = AGF
		add_claim_by = SUD
		add_claim_by = SRF
	}
	provinces={
		11049 
	}
	manpower=1000
	buildings_max_level_factor=1.000
	state_category = state_01
}
