
state={
	id=425
	name="STATE_425"

	history={
		owner = OMA
		victory_points = { 13381 3 } #Khasab
		buildings = {
			infrastructure = 3
			13381 = {
				naval_base = 2
			}

		}
		add_core_of = OMA

	}

	provinces={
		13381
	}
	manpower=52690
	buildings_max_level_factor=1.000
	state_category=state_00
}
