
state={
	id=833
	name="STATE_833"

	history={
		owner = MEX
		victory_points = {
			7973 5 
		}
		victory_points = {
			12811 3 
		}
		victory_points = {
			10746 3 
		}
		victory_points = {
			2060 1 
		}
		buildings = {
			infrastructure = 4
            industrial_complex = 1

		}
		add_core_of = MEX

	}

	provinces={
		2104 7973 10746 10800 12811 12835 128 
	}
	manpower=3089891
	buildings_max_level_factor=1.000
	state_category=state_04
}
