
state={
	id=913
	name="STATE_913"

	history={
		owner = COL
		buildings = {
			infrastructure = 3
			arms_factory = 1
            industrial_complex = 1

		}
		add_core_of = COL

	}

	provinces={
		4969 7993 12845 11575 11624 
	}
	manpower=4716800
	buildings_max_level_factor=1.000
	state_category=state_05
}
