
state={
	id=312
	name="STATE_312"

	history={
		owner = DRC
		victory_points = {
			6468 4 
		}
		victory_points = {
			6027 1 
		}
		victory_points = {
			2073 1 
		}
		buildings = {
			infrastructure = 0

		}
		add_core_of = DRC

	}

	provinces={
		2034 2073 2154 6027 11934 12808 6463 6468 6506 6534 
	}
	manpower=6695774
	buildings_max_level_factor=1.000
	state_category=state_06
}
