
state={
	id=58
	name="STATE_58"

	history={
		owner = FRA
		victory_points = {
			3652 5 
		}
		victory_points = {
			3646 1 
		}
		victory_points = {
			9490 1 
		}
		buildings = {
			infrastructure = 6
			industrial_complex = 2
			air_base = 2

		}
		add_core_of = FRA

	}

	provinces={
		648 667 698 3506 3533 3646 3650 3652 3666 3669 3681 6531 6698 9490 9505 9642 9644 9658 11794 13268 
	}
	manpower=2524382
	buildings_max_level_factor=1.000
	state_category=state_04
}
