
state={
	id=345
	name="STATE_345"

	history={
		owner = GAH
		victory_points = {
			12785 1 
		}
		buildings = {
			infrastructure = 2
			industrial_complex = 1

		}
		add_core_of = GAH

	}

	provinces={
		12785 13136 13482 
	}
	manpower=5222409
	buildings_max_level_factor=1.000
	state_category=state_06
}
