
state={
	id=304
	name="STATE_304"

	history={
		owner = DRC
		victory_points = {
			2024 10 
		}
		victory_points = {
			1731 1 
		}
		victory_points = {
			3765 1 
		}
		victory_points = {
			3490 2 
		}
		buildings = {
			infrastructure = 0
			air_base = 1

		}
		add_core_of = DRC

	}

	provinces={
		1731 2024 8016 3765 3490 3746 
	}
	manpower=7262330
	buildings_max_level_factor=1.000
	state_category=state_07
}
