
state={
	id=489
	name="STATE_489"

	history={
		owner = NEP
		victory_points = {
			10910 1 
		}
		buildings = {
			infrastructure = 0

		}
		add_core_of = NEP

	}

	provinces={
		10825 10910 7206 
	}
	manpower=2196359
	buildings_max_level_factor=1.000
	state_category=state_03
}
