
state={
	id=420
	name="STATE_420"

	history={
		owner = PAK
		victory_points = {
			1910 1 
		}
		buildings = {
			infrastructure = 1
			industrial_complex = 1

		}
		add_core_of = PAK
		add_core_of = TTP
		add_core_of = RAJ

	}

	provinces={
		1910 6424 
	}
	manpower=4981568
	buildings_max_level_factor=1.000
	state_category=state_05
}
