
state={
	id=178
	name="STATE_178"

	history={
		owner = SAU
		victory_points = {
			10786 5 
		}
		victory_points = {
			5006 1 
		}
		victory_points = {
			8073 1 
		}
		buildings = {
			infrastructure = 3
			industrial_complex = 1
			arms_factory = 1
			air_base = 6

		}
		add_core_of = SAU

	}

	provinces={
		5006 8030 8073 10786 13361 13362 
	}
	manpower=4541799
	buildings_max_level_factor=1.000
	state_category=state_05
}
