
state={
	id=361
	name="STATE_361"

	history={
		owner = GUB
		victory_points = {
			12891 5 
		}
		victory_points = {
			12747 2 
		}
		buildings = {
			infrastructure = 1
			air_base = 1
			12891 = {
				naval_base = 1

			}

		}
		add_core_of = GUB

	}

	provinces={
		12747 12891 13446 
	}
	manpower=1978000
	buildings_max_level_factor=1.000
	state_category=state_03
}
