
state={
	id=751
	name="STATE_751"
	resources={
		steel=2.000
		aluminium=7.000
	}

	history={
		owner = NZL
		victory_points = {
			2197 5 
		}
		victory_points = {
			2211 3 
		}
		victory_points = {
			8241 1 
		}
		victory_points = {
			5195 1 
		}
		victory_points = {
			12632 1 
		}
		buildings = {
			infrastructure = 6
			arms_factory = 1
			industrial_complex = 2
			air_base = 2
			2197 = {
				naval_base = 2

			}

		}
		add_core_of = NZL

	}

	provinces={
		2197 2203 2211 4819 5195 7839 8204 8241 10650 12632 12966 12974 12988 
	}
	manpower=1088220
	buildings_max_level_factor=1.000
	state_category=state_02
}
