state= {
	id=272
	name="STATE_272"
	manpower = 2210000
	state_category = state_03

	history={
		owner = LES
		victory_points = { 4556 7 } #Maseru
		
		buildings = {
			infrastructure = 1
			air_base = 1

		}
		add_core_of = LES
	}

	provinces={
		 4556
		
		}
}
