
state={
	id=91
	name="STATE_91"

	history={
		owner = SPR
		victory_points = {
			3938 10 
		}
		victory_points = {
			6902 1 
		}
		victory_points = {
			6866 1 
		}
		victory_points = {
			888 1 
		}
		victory_points = {
			11820 1 
		}
		victory_points = {
			858 1 
		}
		victory_points = {
			9778 1 
		}
		buildings = {
			infrastructure = 5
			arms_factory = 6
			industrial_complex = 4
			air_base = 6

		}
		add_core_of = SPR

	}

	provinces={
		809 858 888 896 942 985 3835 3930 3938 3945 3986 6800 6866 6879 6896 6902 6948 6993 9757 9767 9778 9785 9828 9839 9852 9877 9903 9917 9933 11812 11820 11851 11863 12083 
	}
	manpower=9110995
	buildings_max_level_factor=1.000
	state_category=state_08
}
