state={
	id=923
	name="STATE_923"
	
	history = {
		owner = SUD
		add_core_of = SSU
		add_core_of = AGF
		add_claim_by = SUD
		add_claim_by = SRF
		buildings = {
			infrastructure = 0

		}
	}

	provinces={
		11033 
	}
	manpower=1000
	buildings_max_level_factor=1.000
	state_category = state_01
}
