
state={
	id=501
	name="STATE_501"

	history={
		owner = BRM
		victory_points = {
			4408 1 
		}
		victory_points = {
			12238 1 
		}
		victory_points = {
			4654 1 
		}
		buildings = {
			infrastructure = 0
			air_base = 1

		}

	}

	provinces={
		4293 4408 4654 7441 12238 12256 12317 120 
	}
	manpower=1998932
	buildings_max_level_factor=1.000
	state_category=state_03
}
