
state={
	id=363
	name="STATE_363"

	history={
		owner = SEN
		victory_points = {
			8015 1 
		}
		buildings = {
			infrastructure = 1
			arms_factory = 1

		}
		add_core_of = SEN

	}

	provinces={
		8015 12710 13443 13445 
	}
	manpower=2783855
	buildings_max_level_factor=1.000
	state_category=state_04
}
