
state={
	id=642
	name="STATE_642"

	history={
		owner = SOV
		victory_points = {
			6332 5 
		}
		victory_points = {
			395 1 
		}
		victory_points = {
			348 1 
		}
		buildings = {
			infrastructure = 4
			dockyard = 1
			air_base = 8
			6332 = {
				naval_base = 8

			}

		}
		add_core_of = SOV

	}

	provinces={
		348 395 3384 6332 
	}
	manpower=981873
	buildings_max_level_factor=1.000
	state_category=state_02
}
