﻿division_template = {
	name = "Jalaväebrigaad"

	regiments = {
		Mech_Inf_Bat = { x = 0 y = 0 }
		Arm_Recce_Bat = { x = 0 y = 1 }
		Mot_Inf_Bat = { x = 0 y = 2 }
		Arty_Bat = { x = 0 y = 3 }
		H_Engi_Bat = { x = 0 y = 4 }
	}
	support = {
	}
}

division_template = {
	name = "Jalaväepataljon"

	regiments = {
		Mech_Inf_Bat = { x = 0 y = 0 }
	}
	support = {
	}
}

units = {
	

	division= {	
		name = "1. Jalaväebrigaad"
		location = 9079		#Tapa
		division_template = "Jalaväebrigaad"
		start_experience_factor = 0.4
		start_equipment_factor = 0.01
	}
	
	division= {	
		name = "2. Jalaväebrigaad"
		location = 9221		#Luunja
		division_template = "Jalaväepataljon"
		start_experience_factor = 0.4
		start_equipment_factor = 0.01
	}
}	

instant_effect = {
	
	add_equipment_to_stockpile = {
		type = IFV_Equipment_6	 #CV-90 MkIII
		amount = 44
		producer = SWE
    }
	
	add_equipment_to_stockpile = {
		type = APC_Equipment_3	 #Patria XA-180/XA-188
		amount = 136
		producer = FIN
    }
	
	add_equipment_to_stockpile = {
		type = APC_Equipment_4	 #BTR-80
		amount = 20
		producer = SOV
    }
	
	add_equipment_to_stockpile = {
		type = util_vehicle_equipment_3	 #Mamba APC
		amount = 7
		producer = SAF
    }
	
	add_equipment_to_stockpile = {
		type = ENGI_MBT_Equipment_2		 #Various Bergepanzers
		amount = 4
		producer = GER
    }
	
	add_equipment_to_stockpile = {
		type = Inf_equipment_1		 #IMI Galil
		amount = 500
		producer = ISR
    }
	
	add_equipment_to_stockpile = {
		type = Inf_equipment_0		 #AK 4
		amount = 200
		producer = SWE
    }
	
	add_equipment_to_stockpile = {
		type = Inf_equipment_0		 #G3
		amount = 200
		producer = GER
    }
	
	add_equipment_to_stockpile = {
		type = Inf_equipment_3		 #G36
		amount = 50
		producer = GER
    }
	
	add_equipment_to_stockpile = {
		type = H_AT_Equipment_1		 #MAPATS
		amount = 50
		producer = ISR
    }
	
	add_equipment_to_stockpile = {
		type = H_AT_Equipment_2		 #Javelin
		amount = 50
		producer = USA
    }
	
	add_equipment_to_stockpile = {
		type = L_AT_Equipment_1		 #MILAN
		amount = 50
		producer = FRA
    }
	
	add_equipment_to_stockpile = {
		type = AA_Equipment_2	 #Mistral
		amount = 40
		producer = FRA
    }
	
	add_equipment_to_stockpile = {
		type = artillery_equipment_1	 #FH-70
		amount = 24
		producer = ITA
    }
	
	add_equipment_to_stockpile = {
		type = artillery_equipment_0	 #D-30
		amount = 42
		producer = SOV
    }
	
	add_equipment_to_stockpile = {
		type = util_vehicle_equipment_1	 #DAF YA 4440
		amount = 100
		producer = HOL
    }
	
	add_equipment_to_stockpile = {
		type = util_vehicle_equipment_1	 #G-class Merc
		amount = 100
		producer = GER
    }
	
	add_equipment_to_stockpile = {
		type = L_Strike_fighter_equipment_1	 #Aero L-39 Albatros
		amount = 2
		producer = CZH
    }
	
	add_equipment_to_stockpile = {
		type = command_control_equipment_0	 
		amount = 100
		producer = USA
    }
	
}
