﻿
instant_effect = {

	add_equipment_to_stockpile = {
		type = Inf_equipment_0
		amount = 0
		producer = SOV
    }
		add_equipment_to_stockpile = {
		type = command_control_equipment_0
		amount = 0
		producer = SOV
    }
		add_equipment_to_stockpile = {
		type = L_AT_Equipment_1
		amount = 0
		producer = SOV
    }
	add_equipment_to_stockpile = {
		type = H_AT_Equipment_1
		amount = 0
		producer = SOV
    }
	add_equipment_to_stockpile = {
		type = AA_Equipment_1
		amount = 0
		producer = SOV
    }
	
	add_equipment_to_stockpile = {
		type = Rec_tank_Equipment_0 #BRDM-2
		amount = 0
		producer = SOV
    }
	
	
}