﻿division_template = {
	name = "Armored Brigade"

	regiments = {
	    
		armor_Bat = { x = 0 y = 0 } 
		armor_Bat = { x = 0 y = 1 } 
		Arm_Inf_Bat = { x = 0 y = 2 } 
		Arm_Inf_Bat = { x = 0 y = 3 }
		SP_Arty_Bat = { x = 1 y = 0 }
		Arm_Recce_Bat = { x = 1 y = 1 }
		H_Engi_Bat = { x = 1 y = 2 }
	}
}
units = {
	division = {			
		name = "1st Armored - 3rd Armored BCT"
		location = 3544
		division_template = "Armored Brigade"
		start_experience_factor = 0.6
		start_equipment_factor = 0.01
	}
}
